<?xml version="1.0" encoding="UTF-8" standalone="no"?>
<svg xmlns:rdf="http://www.w3.org/1999/02/22-rdf-syntax-ns#" xmlns="http://www.w3.org/2000/svg" height="100%" width="100%" version="1.2" xmlns:cc="http://creativecommons.org/ns#" xmlns:dc="http://purl.org/dc/elements/1.1/" viewBox="0 0 600 400">
	<metadata>
		<rdf:RDF>
			<cc:Work rdf:about="">
				<dc:format>image/svg+xml</dc:format>
				<dc:type rdf:resource="http://purl.org/dc/dcmitype/StillImage"/>
				<dc:title/>
			</cc:Work>
		</rdf:RDF>
	</metadata>
	<path d="m289.57,296v-5.6081s-1.12-3.9226-2.9893-5.6081c-1.8694-1.6827-3.5493-3.5493-3.9254-4.4854,0,0-0.74665,0.37609-2.0533-0.9333s-5.0481-7.2881-5.0481-7.2881l-1.8694-2.4294s-1.3094-1.8694-3.5521-3.7388c-2.2427-1.8722-2.6132-0.18664-4.1121-2.056-1.4988-1.8694,1.6827-3.5521,2.8027-3.9254,1.1227-0.37332,5.4215,0.37331,7.4775,2.4294l2.056,2.056,2.9893,3.1788,1.496,0.55997,1.8694-2.9893-0.74942-6.3548s-1.6827-7.1042-2.0533-13.272c-0.37609-6.1681-1.3094-15.888,2.8027-16.262,4.1121-0.37332,2.8055,7.1042,2.9893,9.7202,0.18666,2.6132,2.2455,14.576,3.3654,15.512,1.1199,0.93329,1.8694,0.18387,1.8694,0.18387l1.1199-20.934s-1.3345-6.7922,2.9893-7.1014c2.616-0.18665,2.4294,4.2987,2.4294,5.9814s0.74942,20.934,0.74942,20.934l1.4961,0.37611s1.12-6.1681,1.6827-8.7841c0.56278-2.616,1.6827-6.7309,1.4961-8.6002-0.18664-1.8694-0.37611-6.5414,2.8027-6.5414s2.4294,5.0481,2.616,6.7281c0.18663,1.6799-0.37332,8.7841-0.37332,10.467,0,1.6827-2.056,10.094-1.4961,10.653,0.55997,0.55999,5.7948-7.848,6.5442-11.027,0.74665-3.1788,0.55997-8.4136,3.9226-8.0375,3.3654,0.37332,1.3094,7.848,1.12,8.5974-0.18386,0.74942-1.8694,6.5442-2.4294,8.2242-0.55999,1.6799-2.2427,4.1121-2.8027,5.6081-0.55998,1.496,1.1199,6.5442,0,12.896-1.12,6.3548-4.4854,14.392-4.4854,14.392l1.6827,5.7948s-4.8587,1.8694-10.654,2.2427c-5.7948,0.37612-11.776-0.55997-11.776-0.55997z" fill="#2e3436"/>
	<path d="m297.66,143.51-1.7226-6.029c0.50482-0.44281,0.97864-0.91663,1.4259-1.4237l6.0246,1.7226c0.63544-0.9255,1.1823-1.9086,1.6716-2.9293l-4.4836-4.3396c0.21477-0.63765,0.40075-1.2864,0.53359-1.955l6.0423-1.5145c0.0442-0.55796,0.0864-1.1181,0.0864-1.6894,0-0.57123-0.0442-1.1292-0.0864-1.6871l-6.0423-1.5144c-0.135-0.66867-0.32104-1.3174-0.53359-1.9551l4.4858-4.3396c-0.49153-1.0185-1.0384-2.0038-1.6739-2.9293l-6.0246,1.7204c-0.44504-0.50482-0.92106-0.97863-1.4259-1.4237l1.7226-6.0268c-0.9255-0.63324-1.9108-1.1823-2.9315-1.6717l-4.3396,4.4858c-0.63544-0.21477-1.2864-0.39854-1.955-0.53359l-1.5122-6.0445c-0.56018-0.0421-1.1181-0.0864-1.6894-0.0864-0.57125,0-1.1292,0.0443-1.6871,0.0864l-1.5145,6.0445c-0.66865,0.13499-1.3174,0.31882-1.955,0.53359l-4.3396-4.4858c-1.0185,0.49596-2.0016,1.0428-2.927,1.6783l1.7226,6.0268c-0.50483,0.44283-0.98085,0.91885-1.4237,1.4215l-6.0268-1.7226c-0.63544,0.9255-1.1823,1.9108-1.6716,2.9315l4.4858,4.3396c-0.21255,0.63766-0.39854,1.2864-0.5336,1.955l-6.0445,1.5144c-0.042,0.55796-0.0864,1.1181-0.0864,1.6872,0,0.56902,0.0443,1.1292,0.0864,1.6894l6.0445,1.5144c0.135,0.66866,0.32105,1.3174,0.5336,1.955l-4.4858,4.3396c0.48931,1.0185,1.0362,2.0038,1.6716,2.9292l6.0268-1.7226c0.44283,0.50702,0.91885,0.97862,1.4237,1.4237l-1.7226,6.029c0.92548,0.63323,1.9108,1.1801,2.9293,1.6716l4.3396-4.4858c0.63766,0.21477,1.2864,0.40076,1.955,0.53361l1.5144,6.0423c0.55796,0.0443,1.1181,0.0864,1.6894,0.0864,0.57125,0,1.1292-0.0443,1.6894-0.0864l1.5122-6.0423c0.66866-0.135,1.3196-0.32104,1.955-0.53361l4.3396,4.4858c1.0163-0.49596,2.0016-1.0428,2.927-1.6761zm-12.426-10.63c-4.1559,0-7.5257-3.3699-7.5257-7.5257,0-4.1559,3.3699-7.5235,7.5257-7.5235,4.1559,0,7.5235,3.3676,7.5235,7.5235s-3.3676,7.5257-7.5235,7.5257zm34.301,15.731c0.0422-1.2111-0.1329-2.4444-0.50925-3.6621l2.7544-3.9256c-0.41625-0.77493-0.88563-1.51-1.4192-2.1787l-4.6983,0.98528c-0.94764-0.80594-2.0259-1.4347-3.1795-1.8842l-1.3528-4.6031c-0.85464-0.15057-1.7204-0.23248-2.5971-0.2347l-2.1565,4.2865c-0.61773,0.11955-1.2355,0.28341-1.8421,0.51589-0.56903,0.21698-1.1004,0.4871-1.6096,0.78158l-4.4415-1.8134c-0.65758,0.58009-1.2576,1.2067-1.8001,1.8864l2.0082,4.3574c-0.57345,1.096-0.96756,2.2761-1.1491,3.5094l-4.1869,2.347c0.0421,0.85906,0.16827,1.7181,0.36311,2.5794l4.6585,1.1491c0.51145,1.1602,1.1978,2.1986,2.0281,3.0842l-0.77936,4.7338c0.70851,0.50924,1.4613,0.94764,2.2429,1.3285l3.7972-2.9226c1.1868,0.31218,2.4289,0.43174,3.6798,0.33211l3.2149,3.5581c0.44283-0.12615,0.88342-0.26125,1.3196-0.42732,0.38746-0.1461,0.75279-0.31882,1.1181-0.49374l0.0819-4.7935c1.0074-0.75059,1.8665-1.6539,2.5506-2.6702l4.7847-0.29668c0.33656-0.79487,0.61775-1.6207,0.8148-2.4687l-3.6953-3.0599zm-9.2173,4.4437c-2.6591,1.0141-5.6349-0.31883-6.6512-2.978-1.0163-2.6591,0.31662-5.6371,2.9758-6.6534,2.6591-1.014,5.6393,0.31883,6.6556,2.978,1.0141,2.6591-0.32104,5.6371-2.9802,6.6534z" fill="#2e3436"/>
	<path style="direction:ltr;baseline-shift:baseline;block-progression:tb;text-indent:0;color:#000000;enable-background:accumulate;text-transform:none;text-align:start;" d="m374.11,130.36c-1.3792,1.9216-2.2815,4.0724-2.75,6.2812,12.731,1.2981,20.556,4.741,25.219,10.156,6.0464,7.0217,5.5092,15.984,4.875,23.594-0.63416,7.61-1.1491,14.125,1.4062,18.125,1.2777,1.9998,3.3061,3.7684,7.3438,5.1875,4.0376,1.4191,10.036,2.3438,18.5,2.3438,0.1353-0.007,0.27095-0.007,0.40625,0,2.0285,0.12979,3.7807,2.0272,3.7489,4.0596s-1.8424,3.8741-3.8739,3.9404c-0.0417,0.00065-0.0833,0.00065-0.125,0-0.0521,0.001-0.10417,0.001-0.15625,0-8.72,0.95-23.72-4.05-24.02-4-3.8323-1.823-6.7191-4.2846-8.5938-7.2188-4.6322-7.2504-3.2721-15.735-2.6562-23.125,0.61584-7.39,0.70355-13.428-2.9375-17.656-2.7062-3.1427-8.1993-6.0354-18.844-7.3125,0.51942,1.7348,1.3228,3.3914,2.4375,4.9062l-15.219-5.5938c-0.0645-0.00008-0.12279,0-0.1875,0-1.0064,0.009-2.0109-0.37938-2.75-1.0625l-8.0625-2.9688,8.1562-3c0.72208-0.62167,1.6722-0.97231,2.625-0.96875h0.0312l15.406-5.6875z" fill="#4e9a06"/>
	<path style="direction:ltr;baseline-shift:baseline;block-progression:tb;text-indent:0;color:#000000;enable-background:accumulate;text-transform:none;text-align:start;" d="m234.79,136c2.0946,0.10604,3.9039,2.1086,3.7975,4.2032-0.10637,2.0946-2.1092,3.9035-4.2038,3.7968-8.4643,0-14.462,0.92467-18.5,2.3438-4.0376,1.4191-6.0661,3.1877-7.3438,5.1875-2.5553,3.9996-2.0404,10.515-1.4062,18.125,0.63416,7.61,1.1714,16.572-4.875,23.594-2.3894,2.7747-5.6272,5.0307-9.9062,6.75l-15,4.6875c0.51942,1.7348,1.3228,3.3914,2.4375,4.9062l-15.219-5.5938c-0.0639,0.00007-0.12344,0-0.1875,0-0.1353,0.007-0.27095,0.007-0.40625,0-0.1259-0.0149-0.25108-0.0357-0.375-0.0625-0.73226-0.1411-1.4229-0.4919-1.9688-1l-8.0625-2.9688,8.1562-3c0.15655-0.13778,0.3239-0.26329,0.5-0.375,0.11143-0.0681,0.2262-0.13066,0.34375-0.1875,0.47665-0.23536,1.0006-0.37437,1.5312-0.40625,0.0833-0.003,0.16669-0.003,0.25,0h0.0312l15.406-5.6875c-1.1128,1.5505-1.9173,3.2439-2.4375,5,10.644-1.2771,16.138-4.1698,18.844-7.3125,3.641-4.2283,3.5533-10.266,2.9375-17.656-0.61584-7.39-1.9759-15.875,2.6562-23.125,2.3161-3.6252,6.1392-6.5441,11.438-8.4062,5.2984-1.8622,12.121-2.8125,21.156-2.8125,0.1353-0.007,0.27095-0.007,0.40625,0z" fill="#4e9a06"/>
	<path d="m98.934,189.69c-7.9917,0-16.017-2.0509-19.811-6.4769-0.1122,0.49039-0.18701,0.99741-0.18701,1.5314v8.0561c0,7.1377,10.365,10.385,20,10.385,9.6353,0,20-3.2478,20-10.385v-8.0561c0-0.5361-0.0748-1.041-0.18701-1.5314-3.7943,4.426-11.819,6.4769-19.815,6.4769zm0-15.574c-7.9917,0-16.017-2.0509-19.809-6.4769-0.11221,0.49039-0.18909,0.99532-0.18909,1.5294v8.0561c0,7.1377,10.365,10.385,20,10.385,9.6353,0,20-3.2478,20-10.385v-8.0561c0-0.53403-0.0748-1.041-0.18701-1.5314-3.7943,4.428-11.819,6.479-19.815,6.479zm0.002-30.913c-9.6353,0-20,3.252-20,10.392v8.054c0,7.1377,10.365,10.385,20,10.385,9.6353,0,20-3.2478,20-10.385v-8.054c0-7.1377-10.365-10.392-20-10.392zm0,16.623c-8.7501,0-15.844-2.7906-15.844-6.2338,0-3.441,7.094-6.2338,15.844-6.2338,8.7501,0,15.844,2.7927,15.844,6.2338,0,3.4452-7.094,6.2338-15.844,6.2338z" fill="#2e3436"/>
	<path style="text-align:center;" d="m67.808,224.33c-0.000013,2.3568-0.63966,4.1585-1.9189,5.4053-1.2793,1.2468-3.1201,1.8701-5.5225,1.8701h-3.9551v-14.277h4.375c2.22,0.00002,3.9453,0.61525,5.1758,1.8457,1.2305,1.2305,1.8457,2.9492,1.8457,5.1562zm-1.7578,0.0586c-0.000012-1.862-0.46713-3.265-1.4014-4.209-0.93425-0.944-2.3226-1.416-4.165-1.416h-2.4121v11.406h2.0215c1.9792,0,3.4668-0.48665,4.4629-1.46,0.99608-0.9733,1.4941-2.4137,1.4941-4.3213z" fill="#000"/>
	<path style="text-align:center;" d="m77.32,231.61-0.32226-1.5234-0.07813,0c-0.53386,0.67057-1.0661,1.1247-1.5967,1.3623-0.5306,0.23763-1.193,0.35644-1.9873,0.35644-1.0612,0-1.8929-0.27344-2.4951-0.82031-0.60222-0.54688-0.90332-1.3249-0.90332-2.334-0.000001-2.1614,1.7285-3.2943,5.1855-3.3984l1.8164-0.0586v-0.66406c-0.000008-0.83984-0.18067-1.46-0.54199-1.8604-0.36134-0.40038-0.93913-0.60058-1.7334-0.60059-0.89193,0.00001-1.901,0.27345-3.0273,0.82032l-0.49805-1.2402c0.52734-0.28645,1.1051-0.51106,1.7334-0.67383,0.62825-0.16275,1.2581-0.24413,1.8896-0.24414,1.276,0.00001,2.2217,0.28322,2.8369,0.84961,0.61523,0.56642,0.92284,1.4746,0.92285,2.7246v7.3047zm-3.6621-1.1426c1.0091,0,1.8018-0.27669,2.3779-0.83008,0.57616-0.55338,0.86425-1.3281,0.86426-2.3242v-0.96679l-1.6211,0.0684c-1.2891,0.0456-2.2184,0.24577-2.7881,0.60058-0.56966,0.35482-0.8545,0.90658-0.85449,1.6553-0.000002,0.58594,0.17741,1.0319,0.53223,1.3379,0.35481,0.30599,0.85123,0.45898,1.4893,0.45898z" fill="#000"/>
	<path style="text-align:center;" d="m85.327,230.46c0.28645,0,0.56314-0.0212,0.83008-0.0635,0.26692-0.0423,0.47851-0.0863,0.63476-0.13183v1.2402c-0.17579,0.0846-0.43458,0.15462-0.77637,0.20996-0.3418,0.0553-0.64942,0.083-0.92285,0.083-2.0703,0-3.1055-1.0905-3.1055-3.2715v-6.3672h-1.5332v-0.78125l1.5332-0.67383,0.68359-2.2852h0.9375v2.4805h3.1055v1.2598h-3.1055v6.2988c-0.000004,0.64453,0.15299,1.1393,0.45898,1.4844,0.30598,0.34506,0.72591,0.51758,1.2598,0.51758z" fill="#000"/>
	<path style="text-align:center;" d="m95.523,231.61-0.32226-1.5234-0.07813,0c-0.53386,0.67057-1.0661,1.1247-1.5967,1.3623-0.5306,0.23763-1.193,0.35644-1.9873,0.35644-1.0612,0-1.8929-0.27344-2.4951-0.82031-0.60222-0.54688-0.90332-1.3249-0.90332-2.334-0.000001-2.1614,1.7285-3.2943,5.1855-3.3984l1.8164-0.0586v-0.66406c-0.000008-0.83984-0.18067-1.46-0.54199-1.8604-0.36134-0.40038-0.93913-0.60058-1.7334-0.60059-0.89193,0.00001-1.901,0.27345-3.0273,0.82032l-0.49805-1.2402c0.52734-0.28645,1.1051-0.51106,1.7334-0.67383,0.62825-0.16275,1.2581-0.24413,1.8896-0.24414,1.276,0.00001,2.2217,0.28322,2.8369,0.84961,0.61523,0.56642,0.92284,1.4746,0.92285,2.7246v7.3047zm-3.6621-1.1426c1.0091,0,1.8018-0.27669,2.3779-0.83008,0.57616-0.55338,0.86425-1.3281,0.86426-2.3242v-0.96679l-1.6211,0.0684c-1.2891,0.0456-2.2184,0.24577-2.7881,0.60058-0.56966,0.35482-0.8545,0.90658-0.85449,1.6553-0.000002,0.58594,0.17741,1.0319,0.53223,1.3379,0.35481,0.30599,0.85123,0.45898,1.4893,0.45898z" fill="#000"/>
	<path style="text-align:center;" d="m105.05,220.73c1.4062,0.00001,2.4984,0.48016,3.2764,1.4404,0.77798,0.9603,1.167,2.3194,1.167,4.0772-0.00001,1.7578-0.39226,3.1234-1.1768,4.0967-0.78451,0.97331-1.8734,1.46-3.2666,1.46-0.69662,0-1.333-0.12858-1.9092-0.38574-0.57618-0.25716-1.0596-0.65267-1.4502-1.1865h-0.11718l-0.3418,1.377h-1.1621v-15.195h1.6211v3.6914c0,0.82684-0.026,1.569-0.0781,2.2266h0.0781c0.75521-1.0677,1.875-1.6016,3.3594-1.6016zm-0.23437,1.3574c-1.1068,0.00001-1.9043,0.3174-2.3926,0.95215-0.48829,0.63478-0.73243,1.7041-0.73242,3.208-0.00001,1.5039,0.25064,2.5798,0.75195,3.2275,0.5013,0.64779,1.3053,0.97168,2.4121,0.97168,0.99608,0,1.7383-0.36296,2.2266-1.0889,0.48827-0.72591,0.73241-1.7692,0.73242-3.1299-0.00001-1.3932-0.24415-2.4316-0.73242-3.1152-0.48829-0.68358-1.2435-1.0254-2.2656-1.0254z" fill="#000"/>
	<path style="text-align:center;" d="m118.92,231.61-0.32227-1.5234-0.0781,0c-0.53386,0.67057-1.0661,1.1247-1.5967,1.3623-0.5306,0.23763-1.193,0.35644-1.9873,0.35644-1.0612,0-1.8929-0.27344-2.4951-0.82031-0.60221-0.54688-0.90332-1.3249-0.90332-2.334,0-2.1614,1.7285-3.2943,5.1856-3.3984l1.8164-0.0586v-0.66406c0-0.83984-0.18067-1.46-0.54199-1.8604-0.36133-0.40038-0.93913-0.60058-1.7334-0.60059-0.89193,0.00001-1.901,0.27345-3.0273,0.82032l-0.49805-1.2402c0.52734-0.28645,1.1051-0.51106,1.7334-0.67383,0.62825-0.16275,1.2581-0.24413,1.8896-0.24414,1.276,0.00001,2.2217,0.28322,2.8369,0.84961,0.61523,0.56642,0.92285,1.4746,0.92286,2.7246v7.3047zm-3.6621-1.1426c1.0091,0,1.8018-0.27669,2.3779-0.83008,0.57616-0.55338,0.86425-1.3281,0.86426-2.3242v-0.96679l-1.6211,0.0684c-1.2891,0.0456-2.2184,0.24577-2.7881,0.60058-0.56967,0.35482-0.8545,0.90658-0.8545,1.6553,0,0.58594,0.17741,1.0319,0.53223,1.3379,0.35482,0.30599,0.85123,0.45898,1.4893,0.45898z" fill="#000"/>
	<path style="text-align:center;" d="m130.38,228.69c-0.00001,0.99609-0.3711,1.7643-1.1133,2.3047-0.74219,0.54037-1.7839,0.81055-3.125,0.81055-1.4193,0-2.526-0.22461-3.3203-0.67383v-1.5039c0.51432,0.26042,1.0661,0.46549,1.6553,0.61523s1.1572,0.22461,1.7041,0.22461c0.84635,0,1.4974-0.13509,1.9531-0.40527,0.45572-0.27018,0.68358-0.68197,0.68359-1.2354-0.00001-0.41667-0.18067-0.77311-0.54199-1.0693-0.36133-0.29622-1.0661-0.64615-2.1142-1.0498-0.9961-0.37108-1.7041-0.69498-2.124-0.97167-0.41992-0.27669-0.73242-0.59082-0.9375-0.94239-0.20508-0.35155-0.30762-0.77147-0.30762-1.2598,0-0.87239,0.35482-1.5609,1.0645-2.0654,0.70963-0.50455,1.6829-0.75683,2.9199-0.75684,1.1523,0.00001,2.2786,0.23439,3.3789,0.70313l-0.57617,1.3184c-1.0742-0.4427-2.0475-0.66406-2.9199-0.66407-0.76823,0.00001-1.3477,0.12046-1.7383,0.36133-0.39063,0.2409-0.58594,0.57293-0.58594,0.99609,0,0.28647,0.0732,0.53061,0.21973,0.73243,0.14648,0.20183,0.38248,0.39388,0.70801,0.57617,0.32551,0.1823,0.95051,0.44597,1.875,0.79101,1.2695,0.46225,2.1273,0.92774,2.5732,1.3965,0.44595,0.46875,0.66893,1.0579,0.66894,1.7676z" fill="#000"/>
	<path style="text-align:center;" d="m137.52,231.8c-1.582,0-2.8304-0.48177-3.7451-1.4453-0.91471-0.96354-1.3721-2.3014-1.3721-4.0137,0-1.7253,0.4248-3.0957,1.2744-4.1113s1.9906-1.5234,3.4228-1.5234c1.3411,0.00001,2.4023,0.44109,3.1836,1.3232,0.78124,0.88217,1.1719,2.0459,1.1719,3.4912v1.0254h-7.373c0.0326,1.2565,0.34993,2.2103,0.95215,2.8613,0.60221,0.65105,1.4502,0.97657,2.5439,0.97657,1.1523,0,2.2917-0.24089,3.418-0.72266v1.4453c-0.57292,0.2474-1.1149,0.42481-1.626,0.53223-0.51108,0.10742-1.1279,0.16113-1.8506,0.16113zm-0.43945-9.7363c-0.85938,0.00001-1.5446,0.27996-2.0557,0.83985-0.51107,0.5599-0.81218,1.3346-0.90332,2.3242h5.5957c0-1.0221-0.22787-1.805-0.68359-2.3486-0.45574-0.54361-1.1068-0.81542-1.9531-0.81543z" fill="#000"/>
	<path style="text-align:center;" d="m71.636,252.81c-0.00001,1.2565-0.45574,2.2363-1.3672,2.9394-0.91147,0.70313-2.1484,1.0547-3.7109,1.0547-1.6927,0-2.9948-0.2181-3.9062-0.6543v-1.6016c0.58594,0.2474,1.224,0.44271,1.9141,0.58594s1.3737,0.21484,2.0508,0.21484c1.1068,0,1.9401-0.20996,2.5-0.62988,0.55989-0.41992,0.83984-1.0042,0.83984-1.7529-0.000008-0.49479-0.09929-0.90006-0.29785-1.2158-0.19858-0.31575-0.53061-0.60709-0.99609-0.87402-0.4655-0.26692-1.1735-0.56966-2.124-0.90821-1.3281-0.47525-2.277-1.0384-2.8467-1.6894-0.56966-0.65103-0.85449-1.5006-0.85449-2.5488-0.000001-1.1002,0.41341-1.9759,1.2402-2.627,0.82682-0.65103,1.9206-0.97655,3.2812-0.97656,1.4193,0.00001,2.7246,0.26043,3.916,0.78125l-0.51758,1.4453c-1.1784-0.49478-2.3242-0.74218-3.4375-0.74219-0.87891,0.00001-1.5658,0.18882-2.0605,0.56641-0.4948,0.37761-0.74219,0.9017-0.74219,1.5723-0.000003,0.49481,0.09114,0.90008,0.27344,1.2158,0.18229,0.31577,0.4899,0.60548,0.92285,0.86914,0.43294,0.26368,1.0954,0.55503,1.9873,0.87403,1.4974,0.53386,2.5277,1.1068,3.0908,1.7188,0.56314,0.61198,0.84472,1.4062,0.84473,2.3828z" fill="#000"/>
	<path style="text-align:center;" d="m78.589,256.8c-1.5495,0-2.749-0.47689-3.5986-1.4307-0.84961-0.95378-1.2744-2.3031-1.2744-4.0478-0.000002-1.7904,0.43131-3.1738,1.2939-4.1504,0.86263-0.97655,2.0915-1.4648,3.6865-1.4648,0.51432,0.00001,1.0286,0.0553,1.543,0.16602,0.51432,0.11068,0.91796,0.24089,1.2109,0.39062l-0.49805,1.377c-0.35808-0.14322-0.74871-0.26203-1.1719-0.35644-0.42318-0.0944-0.79753-0.14159-1.123-0.1416-2.1745,0.00001-3.2617,1.3867-3.2617,4.1602-0.000003,1.3151,0.2653,2.3242,0.7959,3.0274,0.5306,0.70312,1.3167,1.0547,2.3584,1.0547,0.89192,0,1.8066-0.19206,2.7441-0.57618v1.4356c-0.71615,0.37109-1.6178,0.55664-2.7051,0.55664z" fill="#000"/>
	<path style="text-align:center;" d="m91.167,256.61,0-6.9238c-0.000009-0.87239-0.19858-1.5234-0.5957-1.9531-0.39714-0.42968-1.0189-0.64453-1.8652-0.64454-1.1263,0.00001-1.9482,0.306-2.4658,0.91797-0.51758,0.61199-0.77637,1.6146-0.77637,3.0078v5.5957h-1.6211v-15.195h1.6211v4.5996c-0.000003,0.55339-0.02604,1.0124-0.07813,1.377h0.09766c0.31901-0.51431,0.77311-0.91959,1.3623-1.2158,0.58919-0.29622,1.2614-0.44433,2.0166-0.44434,1.3086,0.00001,2.29,0.31089,2.9443,0.93262,0.65429,0.62175,0.98143,1.6097,0.98144,2.9639v6.9824z" fill="#000"/>
	<path style="text-align:center;" d="m100.63,256.8c-1.582,0-2.8304-0.48177-3.7451-1.4453-0.91472-0.96354-1.3721-2.3014-1.3721-4.0137-0.000002-1.7253,0.4248-3.0957,1.2744-4.1113,0.84961-1.0156,1.9906-1.5234,3.4229-1.5234,1.3411,0.00001,2.4023,0.44109,3.1836,1.3232,0.78124,0.88217,1.1719,2.0459,1.1719,3.4912v1.0254h-7.373c0.03255,1.2565,0.34993,2.2103,0.95215,2.8613,0.60221,0.65105,1.4502,0.97657,2.544,0.97657,1.1523,0,2.2916-0.24089,3.418-0.72266v1.4453c-0.57293,0.2474-1.1149,0.42481-1.626,0.53223-0.51108,0.10742-1.1279,0.16113-1.8506,0.16113zm-0.43945-9.7363c-0.85938,0.00001-1.5446,0.27996-2.0557,0.83985-0.51107,0.5599-0.81218,1.3346-0.90332,2.3242h5.5957c-0.00001-1.0221-0.22787-1.805-0.6836-2.3486-0.45573-0.54361-1.1068-0.81542-1.9531-0.81543z" fill="#000"/>
	<path style="text-align:center;" d="m120.96,256.61,0-6.9629c-0.00001-0.85286-0.1823-1.4925-0.54687-1.919-0.3646-0.42642-0.931-0.63964-1.6992-0.63965-1.0091,0.00001-1.7546,0.28973-2.2363,0.86914-0.48178,0.57944-0.72266,1.4714-0.72265,2.6758v5.9766h-1.6211v-6.9629c-0.00001-0.85286-0.1823-1.4925-0.54687-1.919-0.36459-0.42642-0.93425-0.63964-1.709-0.63965-1.0156,0.00001-1.7594,0.30438-2.2314,0.91309-0.47201,0.60873-0.70801,1.6064-0.70801,2.9932v5.6152h-1.6211v-10.703h1.3184l0.26367,1.4648h0.0781c0.30598-0.52083,0.7373-0.92773,1.2939-1.2207,0.55664-0.29295,1.18-0.43944,1.8701-0.43945,1.6732,0.00001,2.7669,0.60548,3.2812,1.8164h0.0781c0.319-0.55989,0.78124-1.0026,1.3867-1.3281,0.60545-0.32551,1.2956-0.48827,2.0703-0.48828,1.2109,0.00001,2.1175,0.31088,2.7197,0.93262,0.60219,0.62175,0.9033,1.6162,0.90332,2.9834v6.9824z" fill="#000"/>
	<path style="text-align:center;" d="m132.5,256.61-0.32226-1.5234-0.0781,0c-0.53386,0.67057-1.0661,1.1247-1.5967,1.3623-0.5306,0.23763-1.193,0.35644-1.9873,0.35644-1.0612,0-1.8929-0.27344-2.4951-0.82031-0.60221-0.54688-0.90332-1.3249-0.90332-2.334,0-2.1614,1.7285-3.2943,5.1856-3.3984l1.8164-0.0586v-0.66406c0-0.83984-0.18067-1.46-0.54199-1.8604-0.36133-0.40038-0.93913-0.60058-1.7334-0.60059-0.89193,0.00001-1.901,0.27345-3.0273,0.82032l-0.49804-1.2402c0.52734-0.28645,1.1051-0.51106,1.7334-0.67383,0.62825-0.16275,1.2581-0.24413,1.8896-0.24414,1.276,0.00001,2.2217,0.28322,2.8369,0.84961,0.61523,0.56642,0.92284,1.4746,0.92285,2.7246v7.3047zm-3.6621-1.1426c1.0091,0,1.8018-0.27669,2.3779-0.83008,0.57617-0.55338,0.86425-1.3281,0.86426-2.3242v-0.96679l-1.6211,0.0684c-1.2891,0.0456-2.2184,0.24577-2.7881,0.60058-0.56967,0.35482-0.8545,0.90658-0.8545,1.6553,0,0.58594,0.17741,1.0319,0.53223,1.3379,0.35481,0.30599,0.85123,0.45898,1.4892,0.45898z" fill="#000"/>
	<path fill="#2e3436" d="m487.49,149.7-25,14.433,0,28.868,25,14.435,25-14.433v-28.868l-25-14.435zm21.963,17.523-20.806,12.014v24.023c0,0.63658-0.52082,1.1574-1.1574,1.1574s-1.1574-0.52084-1.1574-1.1574v-24.03l-20.803-12.009c-0.55324-0.31943-0.74305-1.0278-0.42361-1.581,0.31945-0.55093,1.0278-0.74306,1.581-0.42361l20.806,12.012,20.806-12.012c0.55094-0.31945,1.2616-0.12732,1.5833,0.42592,0.31481,0.55324,0.125,1.2616-0.42824,1.581z"/>
	<path d="m438.31,221.61c-1.569,0.00001-2.8076,0.52248-3.7158,1.5674-0.90821,1.0449-1.3623,2.4756-1.3623,4.292,0,1.8685,0.43782,3.3122,1.3135,4.331,0.87564,1.0189,2.124,1.5283,3.7451,1.5283,0.99609,0,2.1322-0.17903,3.4082-0.53711v1.4551c-0.9896,0.37109-2.2103,0.55664-3.6621,0.55664-2.1029,0-3.7256-0.63802-4.8682-1.9141-1.1426-1.276-1.7139-3.0892-1.7139-5.4394,0-1.4714,0.27506-2.7604,0.82519-3.8672s1.3444-1.9596,2.3828-2.5586c1.0384-0.59894,2.2607-0.89842,3.667-0.89843,1.4974,0.00001,2.806,0.27345,3.9258,0.82031l-0.70313,1.4258c-1.0807-0.5078-2.1615-0.76171-3.2422-0.76172z" fill="#000"/>
	<path d="m452.43,225.83-0.64453,3.3203,2.7637,0,0,1.2598-2.998,0-0.82031,4.1992-1.3379,0,0.82031-4.1992-2.959,0-0.80078,4.1992-1.3281,0,0.78125-4.1992-2.5586,0,0-1.2598,2.8027,0,0.66406-3.3203-2.7051,0,0-1.2402,2.9199,0,0.80078-4.2578,1.3574,0-0.80078,4.2578,2.9785,0,0.82031-4.2578,1.3086,0-0.82031,4.2578,2.5781,0,0,1.2402zm-4.9414,3.3203,2.959,0,0.64453-3.3203-2.959,0z" fill="#000"/>
	<path d="m475.33,227.45c-0.00001,2.2852-0.57781,4.082-1.7334,5.3906s-2.762,1.9629-4.8193,1.9629c-2.1029,0-3.7256-0.6429-4.8682-1.9287s-1.7139-3.1006-1.7139-5.4443c0-2.3242,0.57292-4.126,1.7188-5.4053,1.1458-1.2793,2.7734-1.9189,4.8828-1.9189,2.0508,0.00001,3.6523,0.65105,4.8047,1.9531,1.1523,1.3021,1.7285,3.099,1.7285,5.3906zm-11.377,0c-0.00001,1.9336,0.41178,3.4001,1.2354,4.3994,0.82356,0.99935,2.0198,1.499,3.5889,1.499,1.582,0,2.7767-0.49804,3.584-1.4941,0.80728-0.99609,1.2109-2.4642,1.2109-4.4043-0.00002-1.9206-0.40203-3.3773-1.2061-4.3701-0.80404-0.99283-1.9938-1.4892-3.5693-1.4893-1.582,0.00001-2.7848,0.49969-3.6084,1.499-0.82357,0.99936-1.2354,2.4528-1.2354,4.3604z" fill="#000"/>
	<path d="m483.26,223.73c1.4062,0.00001,2.4984,0.48016,3.2764,1.4404,0.77799,0.9603,1.167,2.3194,1.167,4.0772-0.00001,1.7578-0.39227,3.1234-1.1768,4.0967-0.78452,0.97331-1.8734,1.46-3.2666,1.46-0.69662,0-1.333-0.12858-1.9092-0.38574-0.57618-0.25716-1.0596-0.65267-1.4502-1.1865h-0.11719l-0.34179,1.377h-1.1621v-15.195h1.6211v3.6914c0,0.82684-0.026,1.569-0.0781,2.2266h0.0781c0.75521-1.0677,1.875-1.6016,3.3594-1.6016zm-0.23438,1.3574c-1.1068,0.00001-1.9043,0.3174-2.3926,0.95215-0.48828,0.63478-0.73242,1.7041-0.73242,3.208s0.25065,2.5798,0.75196,3.2275c0.50129,0.64779,1.3053,0.97168,2.4121,0.97168,0.99609,0,1.7383-0.36296,2.2266-1.0889,0.48827-0.72591,0.73241-1.7692,0.73242-3.1299-0.00001-1.3932-0.24415-2.4316-0.73242-3.1152-0.48829-0.68358-1.2435-1.0254-2.2656-1.0254z" fill="#000"/>
	<path d="m489.24,239.41c-0.61849-0.00001-1.1198-0.0814-1.5039-0.24414v-1.3184c0.44922,0.1302,0.89193,0.19531,1.3281,0.19531,0.50782,0,0.88054-0.13835,1.1182-0.41504,0.23763-0.2767,0.35644-0.69825,0.35644-1.2646v-12.461h1.6211v12.344c-0.00001,2.1094-0.97331,3.1641-2.9199,3.1641zm1.1621-18.408c0-0.37108,0.0912-0.64289,0.27344-0.81543,0.18229-0.17251,0.41016-0.25877,0.6836-0.25879,0.26041,0.00002,0.48502,0.0879,0.67382,0.26368,0.1888,0.17579,0.2832,0.44597,0.28321,0.81054-0.00001,0.3646-0.0944,0.63641-0.28321,0.81543-0.1888,0.17905-0.41341,0.26857-0.67382,0.26856-0.27344,0.00001-0.50131-0.0895-0.6836-0.26856-0.18229-0.17902-0.27344-0.45083-0.27344-0.81543z" fill="#000"/>
	<path d="m500.14,234.8c-1.582,0-2.8304-0.48177-3.7451-1.4453-0.91472-0.96354-1.3721-2.3014-1.3721-4.0137-0.00001-1.7253,0.4248-3.0957,1.2744-4.1113,0.84961-1.0156,1.9906-1.5234,3.4228-1.5234,1.3411,0.00001,2.4023,0.44109,3.1836,1.3232,0.78125,0.88217,1.1719,2.0459,1.1719,3.4912v1.0254h-7.373c0.0326,1.2565,0.34993,2.2103,0.95215,2.8613,0.60221,0.65105,1.4502,0.97657,2.544,0.97657,1.1523,0,2.2916-0.24089,3.418-0.72266v1.4453c-0.57293,0.2474-1.1149,0.42481-1.626,0.53223-0.51108,0.10742-1.1279,0.16113-1.8506,0.16113zm-0.43945-9.7363c-0.85938,0.00001-1.5446,0.27996-2.0557,0.83985-0.51108,0.5599-0.81218,1.3346-0.90332,2.3242h5.5957c-0.00001-1.0221-0.22787-1.805-0.6836-2.3486-0.45573-0.54361-1.1068-0.81542-1.9531-0.81543z" fill="#000"/>
	<path d="m511.11,234.8c-1.5495,0-2.749-0.47689-3.5986-1.4307-0.84961-0.95378-1.2744-2.3031-1.2744-4.0478,0-1.7904,0.43132-3.1738,1.294-4.1504,0.86263-0.97655,2.0915-1.4648,3.6865-1.4648,0.51432,0.00001,1.0286,0.0554,1.543,0.16602,0.51432,0.11068,0.91796,0.24089,1.2109,0.39062l-0.49805,1.377c-0.35808-0.14322-0.7487-0.26203-1.1719-0.35644-0.42319-0.0944-0.79754-0.14159-1.123-0.1416-2.1745,0.00001-3.2617,1.3867-3.2617,4.1602,0,1.3151,0.2653,2.3242,0.7959,3.0274,0.53059,0.70312,1.3167,1.0547,2.3584,1.0547,0.89192,0,1.8066-0.19206,2.7441-0.57618v1.4356c-0.71616,0.37109-1.6178,0.55664-2.7051,0.55664z" fill="#000"/>
	<path d="m519.82,233.46c0.28645,0,0.56314-0.0212,0.83008-0.0635,0.26692-0.0423,0.4785-0.0863,0.63476-0.13183v1.2402c-0.17579,0.0846-0.43458,0.15462-0.77637,0.20996-0.3418,0.0553-0.64942,0.083-0.92285,0.083-2.0703,0-3.1055-1.0905-3.1055-3.2715v-6.3672h-1.5332v-0.78125l1.5332-0.67383,0.6836-2.2852h0.9375v2.4805h3.1055v1.2598h-3.1055v6.2988c-0.00001,0.64453,0.15299,1.1393,0.45898,1.4844,0.30599,0.34506,0.72591,0.51758,1.2598,0.51758z" fill="#000"/>
	<path d="m527.95,234.8c-1.582,0-2.8304-0.48177-3.7451-1.4453-0.91472-0.96354-1.3721-2.3014-1.3721-4.0137-0.00001-1.7253,0.4248-3.0957,1.2744-4.1113,0.84961-1.0156,1.9906-1.5234,3.4228-1.5234,1.3411,0.00001,2.4023,0.44109,3.1836,1.3232,0.78125,0.88217,1.1719,2.0459,1.1719,3.4912v1.0254h-7.373c0.0326,1.2565,0.34993,2.2103,0.95215,2.8613,0.60221,0.65105,1.4502,0.97657,2.544,0.97657,1.1523,0,2.2916-0.24089,3.418-0.72266v1.4453c-0.57293,0.2474-1.1149,0.42481-1.626,0.53223-0.51108,0.10742-1.1279,0.16113-1.8506,0.16113zm-0.43945-9.7363c-0.85938,0.00001-1.5446,0.27996-2.0557,0.83985-0.51108,0.5599-0.81218,1.3346-0.90332,2.3242h5.5957c-0.00001-1.0221-0.22787-1.805-0.6836-2.3486-0.45573-0.54361-1.1068-0.81542-1.9531-0.81543z" fill="#000"/>
	<path d="m541.97,234.61,0-6.9238c0-0.87239-0.19857-1.5234-0.5957-1.9531-0.39714-0.42968-1.0189-0.64453-1.8652-0.64454-1.1198,0.00001-1.9401,0.30275-2.4609,0.90821-0.52084,0.60547-0.78125,1.6048-0.78125,2.998v5.6152h-1.6211v-10.703h1.3184l0.26367,1.4648h0.0781c0.33203-0.52734,0.79752-0.93586,1.3965-1.2256,0.59895-0.2897,1.2663-0.43456,2.002-0.43457,1.289,0.00001,2.2591,0.31088,2.9102,0.93262,0.65103,0.62175,0.97655,1.6162,0.97656,2.9834v6.9824z" fill="#000"/>
	<path d="m325.43,284.96-17.307-17.307,17.304-17.307-8.8957-8.902-17.307,17.307-17.307-17.307-8.8957,8.902,17.304,17.307-17.307,17.307,8.902,8.8989,17.304-17.307,17.304,17.307z" fill="#C00"/>
</svg>
