<?xml version="1.0" encoding="UTF-8" standalone="no"?>
<svg xmlns:rdf="http://www.w3.org/1999/02/22-rdf-syntax-ns#" xmlns="http://www.w3.org/2000/svg" height="100%" width="100%" version="1.2" xmlns:cc="http://creativecommons.org/ns#" xmlns:dc="http://purl.org/dc/elements/1.1/" viewBox="0 0 600 400">
	<metadata>
		<rdf:RDF>
			<cc:Work rdf:about="">
				<dc:format>image/svg+xml</dc:format>
				<dc:type rdf:resource="http://purl.org/dc/dcmitype/StillImage"/>
				<dc:title/>
			</cc:Work>
		</rdf:RDF>
	</metadata>
	<path d="m148.87,362.63c-0.00002,2.3568-0.63967,4.1585-1.919,5.4053-1.2793,1.2467-3.1201,1.8701-5.5225,1.8701h-3.9551v-14.277h4.375c2.22,0.00001,3.9453,0.61525,5.1758,1.8457,1.2305,1.2305,1.8457,2.9492,1.8457,5.1562zm-1.7578,0.0586c-0.00001-1.862-0.46713-3.265-1.4014-4.209-0.93426-0.944-2.3226-1.416-4.165-1.416h-2.4121v11.406h2.0215c1.9792,0,3.4668-0.48665,4.4629-1.46,0.99609-0.97331,1.4941-2.4137,1.4941-4.3213z" fill="#000"/>
	<path d="m158.38,369.9-0.32226-1.5234-0.0781,0c-0.53386,0.67057-1.0661,1.1247-1.5967,1.3623-0.5306,0.23763-1.193,0.35645-1.9873,0.35645-1.0612,0-1.8929-0.27344-2.4951-0.82032-0.60221-0.54687-0.90332-1.3249-0.90332-2.334,0-2.1614,1.7285-3.2943,5.1856-3.3984l1.8164-0.0586v-0.66406c-0.00001-0.83984-0.18068-1.46-0.542-1.8604-0.36133-0.40038-0.93913-0.60057-1.7334-0.60058-0.89193,0.00001-1.901,0.27344-3.0273,0.82031l-0.49805-1.2402c0.52735-0.28645,1.1051-0.51106,1.7334-0.67383,0.62825-0.16275,1.2581-0.24413,1.8896-0.24414,1.276,0.00001,2.2217,0.28321,2.8369,0.84961,0.61522,0.56641,0.92284,1.4746,0.92285,2.7246v7.3047zm-3.6621-1.1426c1.0091,0,1.8018-0.2767,2.3779-0.83008,0.57616-0.55339,0.86425-1.3281,0.86425-2.3242v-0.9668l-1.6211,0.0684c-1.2891,0.0456-2.2184,0.24577-2.7881,0.60059-0.56966,0.35482-0.85449,0.90658-0.85449,1.6553,0,0.58594,0.17741,1.0319,0.53223,1.3379,0.35481,0.30599,0.85123,0.45899,1.4893,0.45899z" fill="#000"/>
	<path d="m166.39,368.76c0.28645,0,0.56314-0.0212,0.83008-0.0635,0.26692-0.0423,0.4785-0.0863,0.63476-0.13184v1.2402c-0.17579,0.0846-0.43458,0.15462-0.77637,0.20996-0.3418,0.0553-0.64942,0.083-0.92285,0.083-2.0703,0-3.1055-1.0905-3.1055-3.2715v-6.3672h-1.5332v-0.78125l1.5332-0.67382,0.6836-2.2852h0.9375v2.4805h3.1055v1.2598h-3.1055v6.2988c-0.00001,0.64454,0.15299,1.1393,0.45898,1.4844,0.30599,0.34505,0.72591,0.51758,1.2598,0.51758z" fill="#000"/>
	<path d="m176.59,369.9-0.32227-1.5234-0.0781,0c-0.53386,0.67057-1.0661,1.1247-1.5967,1.3623-0.53061,0.23763-1.193,0.35645-1.9873,0.35645-1.0612,0-1.8929-0.27344-2.4951-0.82032-0.60222-0.54687-0.90332-1.3249-0.90332-2.334,0-2.1614,1.7285-3.2943,5.1855-3.3984l1.8164-0.0586v-0.66406c-0.00001-0.83984-0.18067-1.46-0.54199-1.8604-0.36134-0.40038-0.93914-0.60057-1.7334-0.60058-0.89193,0.00001-1.901,0.27344-3.0273,0.82031l-0.49805-1.2402c0.52734-0.28645,1.1051-0.51106,1.7334-0.67383,0.62825-0.16275,1.2581-0.24413,1.8896-0.24414,1.276,0.00001,2.2217,0.28321,2.8369,0.84961,0.61523,0.56641,0.92284,1.4746,0.92285,2.7246v7.3047zm-3.6621-1.1426c1.0091,0,1.8018-0.2767,2.3779-0.83008,0.57616-0.55339,0.86425-1.3281,0.86426-2.3242v-0.9668l-1.6211,0.0684c-1.2891,0.0456-2.2184,0.24577-2.7881,0.60059-0.56967,0.35482-0.8545,0.90658-0.85449,1.6553-0.00001,0.58594,0.1774,1.0319,0.53222,1.3379,0.35482,0.30599,0.85124,0.45899,1.4893,0.45899z" fill="#000"/>
	<path d="m186.12,359.02c1.4062,0.00001,2.4984,0.48015,3.2764,1.4404,0.77798,0.96029,1.167,2.3193,1.167,4.0772-0.00001,1.7578-0.39226,3.1234-1.1768,4.0967-0.78451,0.9733-1.8734,1.46-3.2666,1.46-0.69662,0-1.333-0.12858-1.9092-0.38575-0.57618-0.25716-1.0596-0.65266-1.4502-1.1865h-0.11718l-0.3418,1.377h-1.1621v-15.195h1.6211v3.6914c0,0.82683-0.026,1.569-0.0781,2.2266h0.0781c0.75521-1.0677,1.875-1.6016,3.3594-1.6016zm-0.23438,1.3574c-1.1068,0.00001-1.9043,0.31739-2.3926,0.95215-0.48829,0.63477-0.73243,1.7041-0.73243,3.208s0.25065,2.5798,0.75196,3.2275c0.5013,0.64779,1.3053,0.97169,2.4121,0.97168,0.99608,0.00001,1.7383-0.36295,2.2266-1.0889,0.48827-0.72591,0.73241-1.7692,0.73242-3.1299-0.00001-1.3932-0.24415-2.4316-0.73242-3.1152-0.48829-0.68358-1.2435-1.0254-2.2656-1.0254z" fill="#000"/>
	<path d="m199.99,369.9-0.32227-1.5234-0.0781,0c-0.53386,0.67057-1.0661,1.1247-1.5967,1.3623-0.53061,0.23763-1.193,0.35645-1.9873,0.35645-1.0612,0-1.8929-0.27344-2.4951-0.82032-0.60222-0.54687-0.90333-1.3249-0.90333-2.334,0-2.1614,1.7285-3.2943,5.1856-3.3984l1.8164-0.0586v-0.66406c-0.00001-0.83984-0.18067-1.46-0.54199-1.8604-0.36134-0.40038-0.93914-0.60057-1.7334-0.60058-0.89193,0.00001-1.901,0.27344-3.0274,0.82031l-0.49804-1.2402c0.52734-0.28645,1.1051-0.51106,1.7334-0.67383,0.62825-0.16275,1.2581-0.24413,1.8896-0.24414,1.276,0.00001,2.2217,0.28321,2.8369,0.84961,0.61522,0.56641,0.92284,1.4746,0.92285,2.7246v7.3047zm-3.6621-1.1426c1.0091,0,1.8018-0.2767,2.3779-0.83008,0.57616-0.55339,0.86425-1.3281,0.86426-2.3242v-0.9668l-1.6211,0.0684c-1.2891,0.0456-2.2184,0.24577-2.7881,0.60059-0.56967,0.35482-0.8545,0.90658-0.8545,1.6553,0,0.58594,0.17741,1.0319,0.53223,1.3379,0.35481,0.30599,0.85123,0.45899,1.4893,0.45899z" fill="#000"/>
	<path d="m211.44,366.98c-0.00001,0.9961-0.37111,1.7643-1.1133,2.3047-0.74219,0.54036-1.7839,0.81055-3.125,0.81055-1.4193,0-2.526-0.22461-3.3203-0.67383v-1.5039c0.51432,0.26042,1.0661,0.4655,1.6553,0.61524,0.58918,0.14974,1.1572,0.22461,1.7041,0.22461,0.84635,0,1.4974-0.13509,1.9531-0.40528,0.45572-0.27018,0.68359-0.68196,0.6836-1.2354-0.00001-0.41666-0.18068-0.77311-0.542-1.0693-0.36133-0.29622-1.0661-0.64615-2.1142-1.0498-0.9961-0.37109-1.7041-0.69498-2.124-0.97168-0.41992-0.27669-0.73242-0.59081-0.9375-0.94238-0.20508-0.35156-0.30762-0.77148-0.30762-1.2598,0-0.87239,0.35482-1.5609,1.0645-2.0654,0.70963-0.50454,1.6829-0.75682,2.9199-0.75683,1.1523,0.00001,2.2786,0.23438,3.3789,0.70312l-0.57618,1.3184c-1.0742-0.4427-2.0475-0.66405-2.9199-0.66406-0.76823,0.00001-1.3477,0.12045-1.7383,0.36133-0.39063,0.24089-0.58594,0.57292-0.58594,0.99609,0,0.28647,0.0732,0.53061,0.21973,0.73242,0.14648,0.20183,0.38248,0.39389,0.70801,0.57617,0.32551,0.1823,0.95051,0.44597,1.875,0.79102,1.2695,0.46224,2.1273,0.92774,2.5732,1.3965,0.44596,0.46876,0.66894,1.058,0.66895,1.7676z" fill="#000"/>
	<path d="m218.59,370.1c-1.582,0-2.8304-0.48177-3.7451-1.4453-0.91472-0.96354-1.3721-2.3014-1.3721-4.0137-0.00001-1.7252,0.4248-3.0957,1.2744-4.1113,0.84961-1.0156,1.9906-1.5234,3.4228-1.5234,1.3411,0.00001,2.4023,0.44109,3.1836,1.3232,0.78125,0.88217,1.1719,2.0459,1.1719,3.4912v1.0254h-7.373c0.0326,1.2565,0.34993,2.2103,0.95215,2.8613,0.60221,0.65104,1.4502,0.97656,2.544,0.97656,1.1523,0,2.2916-0.24088,3.418-0.72266v1.4453c-0.57293,0.24739-1.1149,0.4248-1.626,0.53222-0.51108,0.10743-1.1279,0.16114-1.8506,0.16114zm-0.43945-9.7363c-0.85938,0.00001-1.5446,0.27996-2.0557,0.83984-0.51108,0.55991-0.81218,1.3346-0.90332,2.3242h5.5957c-0.00001-1.0221-0.22787-1.805-0.6836-2.3486-0.45573-0.54361-1.1068-0.81542-1.9531-0.81543z" fill="#000"/>
	<rect ry="10" height="240" width="220" y="29.902" x="310" fill="#8ae234"/>
	<rect ry="10" height="70" width="220" y="199.9" x="70" fill="#8ae234"/>
	<rect ry="10" height="50" width="500" y="159.9" x="50" fill="#73d216"/>
	<path d="m153.49,179c-1.569,0.00001-2.8076,0.52247-3.7158,1.5674-0.90821,1.0449-1.3623,2.4756-1.3623,4.292,0,1.8685,0.43782,3.3122,1.3135,4.331,0.87564,1.0189,2.124,1.5283,3.7451,1.5283,0.99608,0,2.1322-0.17903,3.4082-0.53711v1.4551c-0.9896,0.37109-2.2103,0.55664-3.6621,0.55664-2.1029,0-3.7256-0.63802-4.8682-1.9141-1.1426-1.276-1.7139-3.0892-1.7139-5.4395,0-1.4713,0.27506-2.7604,0.82519-3.8672s1.3444-1.9596,2.3828-2.5586c1.0384-0.59894,2.2607-0.89842,3.667-0.89843,1.4974,0.00001,2.806,0.27345,3.9258,0.82031l-0.70313,1.4258c-1.0807-0.5078-2.1615-0.76171-3.2422-0.76172z" fill="#000"/>
	<path d="m167.61,183.22-0.64453,3.3203,2.7637,0,0,1.2598-2.998,0-0.82031,4.1992-1.3379,0,0.82031-4.1992-2.959,0-0.80078,4.1992-1.3281,0,0.78125-4.1992-2.5586,0,0-1.2598,2.8027,0,0.66407-3.3203-2.7051,0,0-1.2402,2.9199,0,0.80078-4.2578,1.3574,0-0.80078,4.2578,2.9785,0,0.82031-4.2578,1.3086,0-0.82031,4.2578,2.5781,0,0,1.2402zm-4.9414,3.3203,2.959,0,0.64453-3.3203-2.959,0z" fill="#000"/>
	<path d="m172.45,190.97c0-0.43619,0.0993-0.7666,0.29786-0.99121s0.48339-0.33691,0.85449-0.33691c0.3776,0,0.6722,0.1123,0.88379,0.33691,0.21158,0.22461,0.31738,0.55502,0.31738,0.99121,0,0.42318-0.10743,0.7487-0.32227,0.97656-0.21484,0.22787-0.50781,0.3418-0.8789,0.3418-0.33203,0-0.6071-0.10254-0.8252-0.30762-0.2181-0.20507-0.32715-0.54199-0.32715-1.0107z" fill="#000"/>
	<path d="m189.39,192-1.8945,0-7.8027-11.982-0.0781,0c0.10417,1.4063,0.15625,2.6953,0.15625,3.8672v8.1152h-1.5332v-14.277h1.875l7.7832,11.934h0.0781c-0.013-0.17578-0.0423-0.74056-0.0879-1.6943-0.0456-0.95377-0.0619-1.6357-0.0488-2.0459v-8.1934h1.5527z" fill="#000"/>
	<path d="m201.27,192-7.959,0,0-14.277,7.959,0,0,1.4746-6.2988,0,0,4.5996,5.918,0,0,1.4648-5.918,0,0,5.2539,6.2988,0z" fill="#000"/>
	<path d="m208.84,192-1.6602,0,0-12.803-4.5215,0,0-1.4746,10.703,0,0,1.4746-4.5215,0z" fill="#000"/>
	<path d="m391.9,192-1.7774-4.541-5.7226,0-1.7578,4.541-1.6797,0,5.6445-14.336,1.3965,0,5.6152,14.336zm-2.2949-6.0352-1.6602-4.4238c-0.21485-0.55988-0.4362-1.2467-0.66406-2.0605-0.14324,0.62501-0.34832,1.3119-0.61524,2.0605l-1.6797,4.4238z" fill="#000"/>
	<path d="m403.64,188.2c-0.00001,1.2565-0.45574,2.2363-1.3672,2.9394-0.91146,0.70313-2.1484,1.0547-3.7109,1.0547-1.6927,0-2.9948-0.2181-3.9062-0.6543v-1.6016c0.58594,0.2474,1.224,0.44271,1.9141,0.58594s1.3737,0.21484,2.0508,0.21484c1.1068,0,1.9401-0.20996,2.5-0.62988,0.55989-0.41992,0.83983-1.0042,0.83984-1.7529-0.00001-0.49479-0.0993-0.90006-0.29785-1.2158-0.19858-0.31575-0.53061-0.60709-0.99609-0.87402-0.46551-0.26693-1.1735-0.56966-2.124-0.90821-1.3281-0.47525-2.277-1.0384-2.8467-1.6894-0.56966-0.65103-0.85449-1.5006-0.85449-2.5488,0-1.1002,0.41341-1.9759,1.2402-2.627,0.82682-0.65103,1.9206-0.97655,3.2812-0.97656,1.4193,0.00001,2.7246,0.26043,3.916,0.78125l-0.51758,1.4453c-1.1784-0.49478-2.3242-0.74218-3.4375-0.74219-0.87891,0.00001-1.5658,0.18882-2.0605,0.56641-0.4948,0.37761-0.74219,0.9017-0.74219,1.5723,0,0.4948,0.0911,0.90008,0.27344,1.2158,0.18228,0.31577,0.4899,0.60548,0.92285,0.86914,0.43294,0.26368,1.0954,0.55503,1.9873,0.87403,1.4974,0.53386,2.5277,1.1068,3.0908,1.7188,0.56314,0.61198,0.84472,1.4062,0.84473,2.3828z" fill="#000"/>
	<path d="m415.62,181.88c-0.00002,1.4453-0.49318,2.557-1.4795,3.335-0.98633,0.778-2.3975,1.167-4.2334,1.167h-1.6797v5.6152h-1.6602v-14.277h3.7012c3.5677,0.00002,5.3516,1.3867,5.3516,4.1602zm-7.3926,3.0762,1.4941,0c1.4714,0.00001,2.5358-0.23762,3.1934-0.71289,0.65754-0.47525,0.98632-1.237,0.98633-2.2852-0.00001-0.944-0.30926-1.6471-0.92774-2.1094-0.6185-0.46223-1.582-0.69335-2.8906-0.69336h-1.8555z" fill="#000"/>
	<path d="m418.12,190.97c-0.00001-0.43619,0.0993-0.7666,0.29785-0.99121,0.19856-0.22461,0.48339-0.33691,0.85449-0.33691,0.3776,0,0.6722,0.1123,0.88379,0.33691,0.21158,0.22461,0.31738,0.55502,0.31738,0.99121,0,0.42318-0.10742,0.7487-0.32226,0.97656-0.21485,0.22787-0.50782,0.3418-0.87891,0.3418-0.33203,0-0.6071-0.10254-0.8252-0.30762-0.2181-0.20507-0.32715-0.54199-0.32714-1.0107z" fill="#000"/>
	<path d="m435.06,192-1.8945,0-7.8027-11.982-0.0781,0c0.10417,1.4063,0.15625,2.6953,0.15625,3.8672v8.1152h-1.5332v-14.277h1.875l7.7832,11.934h0.0781c-0.013-0.17578-0.0423-0.74056-0.0879-1.6943-0.0456-0.95377-0.0619-1.6357-0.0488-2.0459v-8.1934h1.5527z" fill="#000"/>
	<path d="m446.94,192-7.959,0,0-14.277,7.959,0,0,1.4746-6.2988,0,0,4.5996,5.918,0,0,1.4648-5.918,0,0,5.2539,6.2988,0z" fill="#000"/>
	<path d="m454.51,192-1.6602,0,0-12.803-4.5215,0,0-1.4746,10.703,0,0,1.4746-4.5215,0z" fill="#000"/>
	<path d="m345.46,79.902-1.6602,0,0-12.803-4.5215,0,0-1.4746,10.703,0,0,1.4746-4.5215,0z" fill="#000"/>
	<path d="m360.62,79.902-1.9629-6.2793c-0.12371-0.38411-0.35483-1.2565-0.69336-2.6172h-0.0781c-0.26042,1.1393-0.48829,2.0182-0.68359,2.6367l-2.0215,6.2598h-1.875l-2.9199-10.703h1.6992c0.6901,2.6888,1.2158,4.7363,1.5772,6.1426,0.36132,1.4063,0.56803,2.3535,0.62012,2.8418h0.0781c0.0716-0.37109,0.18717-0.85124,0.34668-1.4404,0.1595-0.58919,0.29785-1.0563,0.41504-1.4014l1.9629-6.1426h1.7578l1.9141,6.1426c0.36457,1.1198,0.61196,2.0605,0.74218,2.8223h0.0781c0.026-0.23437,0.096-0.5957,0.20996-1.084,0.11392-0.48828,0.79263-3.1152,2.0361-7.8809h1.6797l-2.959,10.703z" fill="#000"/>
	<path d="m369.05,79.902-1.6211,0,0-10.703,1.6211,0zm-1.76-2.9c0-0.37108,0.0911-0.64289,0.27344-0.81543,0.18229-0.17251,0.41015-0.25877,0.68359-0.25879,0.26042,0.000015,0.48502,0.08791,0.67383,0.26367,0.1888,0.1758,0.2832,0.44598,0.2832,0.81055,0,0.3646-0.0944,0.63641-0.2832,0.81543-0.18881,0.17905-0.41341,0.26857-0.67383,0.26855-0.27344,0.000013-0.5013-0.08951-0.68359-0.26855-0.1823-0.17902-0.27344-0.45083-0.27344-0.81543z" fill="#000"/>
	<path d="m375.96,78.76c0.28645,0.000001,0.56314-0.02116,0.83007-0.06348,0.26692-0.04232,0.47851-0.08626,0.63477-0.13184v1.2402c-0.17579,0.08464-0.43458,0.15462-0.77637,0.20996-0.3418,0.05534-0.64942,0.08301-0.92285,0.08301-2.0703,0-3.1055-1.0905-3.1055-3.2715v-6.3672h-1.5332v-0.78125l1.5332-0.67383,0.6836-2.2852h0.9375v2.4805h3.1055v1.2598h-3.1055v6.2988c-0.00001,0.64453,0.15299,1.1393,0.45898,1.4844,0.30598,0.34505,0.72591,0.51758,1.2598,0.51758z" fill="#000"/>
	<path d="m383.03,78.76c0.28645,0.000001,0.56314-0.02116,0.83008-0.06348,0.26692-0.04232,0.4785-0.08626,0.63476-0.13184v1.2402c-0.17579,0.08464-0.43458,0.15462-0.77637,0.20996-0.3418,0.05534-0.64942,0.08301-0.92285,0.08301-2.0703,0-3.1055-1.0905-3.1055-3.2715v-6.3672h-1.5332v-0.78125l1.5332-0.67383,0.6836-2.2852h0.9375v2.4805h3.1055v1.2598h-3.1055v6.2988c-0.00001,0.64453,0.15299,1.1393,0.45898,1.4844,0.30599,0.34505,0.72591,0.51758,1.2598,0.51758z" fill="#000"/>
	<path d="m391.17,80.098c-1.582,0-2.8304-0.48177-3.7451-1.4453-0.91472-0.96354-1.3721-2.3014-1.3721-4.0137-0.00001-1.7253,0.4248-3.0957,1.2744-4.1113,0.84961-1.0156,1.9906-1.5234,3.4228-1.5234,1.3411,0.000011,2.4023,0.44109,3.1836,1.3232,0.78124,0.88217,1.1719,2.0459,1.1719,3.4912v1.0254h-7.373c0.0325,1.2565,0.34993,2.2103,0.95215,2.8613,0.60221,0.65104,1.4502,0.97656,2.544,0.97656,1.1523,0.000001,2.2917-0.24088,3.418-0.72266v1.4453c-0.57293,0.2474-1.1149,0.4248-1.626,0.53223-0.51108,0.10742-1.1279,0.16113-1.8506,0.16113zm-0.43945-9.7363c-0.85938,0.00001-1.5446,0.27996-2.0557,0.83984-0.51107,0.5599-0.81218,1.3346-0.90332,2.3242h5.5957c-0.00001-1.0221-0.22787-1.805-0.68359-2.3486-0.45574-0.54361-1.1068-0.81542-1.9531-0.81543z" fill="#000"/>
	<path d="m402.74,69.004c0.47525,0.000011,0.90168,0.03907,1.2793,0.11719l-0.23,1.504c-0.44272-0.09765-0.83334-0.14648-1.1719-0.14648-0.86589,0.000009-1.6064,0.35157-2.2217,1.0547-0.61524,0.70313-0.92285,1.5788-0.92285,2.627v5.7422h-1.6211v-10.703h1.3379l0.18554,1.9824h0.0781c0.39713-0.69661,0.87565-1.2337,1.4356-1.6113,0.55989-0.37759,1.1751-0.5664,1.8457-0.56641z" fill="#000"/>
	<path d="m411.46,65.625,4.0332,0c1.8945,0.000014,3.265,0.28322,4.1113,0.84961,0.84635,0.56642,1.2695,1.4616,1.2695,2.6855-0.00001,0.84636-0.23601,1.5446-0.708,2.0947-0.47202,0.55014-1.1605,0.90658-2.0654,1.0693v0.09766c2.168,0.3711,3.2519,1.5104,3.252,3.418-0.00001,1.276-0.43133,2.2721-1.294,2.9883-0.86264,0.71615-2.0687,1.0742-3.6182,1.0742h-4.9805zm1.6602,6.1133,2.7344,0c1.1719,0.000008,2.015-0.18391,2.5293-0.55176,0.51431-0.36783,0.77147-0.98795,0.77148-1.8604-0.00001-0.80077-0.28646-1.3786-0.85937-1.7334-0.57293-0.3548-1.4844-0.53221-2.7344-0.53223h-2.4414zm0,1.4062,0,5.3418,2.9785,0c1.1523,0.000002,2.0198-0.22298,2.6025-0.66894,0.58268-0.44596,0.87402-1.1442,0.87403-2.0947-0.00001-0.88541-0.29786-1.5365-0.89356-1.9531-0.59571-0.41666-1.5023-0.62499-2.7197-0.625z" fill="#000"/>
	<path d="m433.42,74.541c-0.00001,1.7448-0.43946,3.1071-1.3184,4.0869-0.87891,0.97982-2.0931,1.4697-3.6426,1.4697-0.95704,0-1.8066-0.22461-2.5488-0.67383-0.74219-0.44922-1.3151-1.0937-1.7188-1.9336-0.40365-0.83984-0.60547-1.8229-0.60547-2.9492,0-1.7448,0.43619-3.1038,1.3086-4.0771,0.87239-0.9733,2.0833-1.46,3.6328-1.46,1.4974,0.000011,2.6872,0.49806,3.5693,1.4941,0.88215,0.9961,1.3232,2.3438,1.3232,4.043zm-8.1543,0c-0.00001,1.3672,0.27343,2.4089,0.82031,3.125,0.54687,0.71615,1.3509,1.0742,2.4121,1.0742,1.0612,0.000002,1.8668-0.35644,2.417-1.0693,0.55012-0.71289,0.82519-1.7562,0.8252-3.1299-0.00001-1.3607-0.27508-2.3942-0.8252-3.1006-0.55014-0.70637-1.3623-1.0596-2.4365-1.0596-1.0612,0.00001-1.862,0.34832-2.4024,1.0449-0.54037,0.69662-0.81055,1.735-0.81054,3.1152z" fill="#000"/>
	<path d="m445.49,74.541c-0.00002,1.7448-0.43947,3.1071-1.3184,4.0869-0.87892,0.97982-2.0931,1.4697-3.6426,1.4697-0.95704,0-1.8066-0.22461-2.5488-0.67383-0.74219-0.44922-1.3151-1.0937-1.7188-1.9336-0.40365-0.83984-0.60547-1.8229-0.60547-2.9492,0-1.7448,0.4362-3.1038,1.3086-4.0771s2.0833-1.46,3.6328-1.46c1.4974,0.000011,2.6872,0.49806,3.5693,1.4941,0.88215,0.9961,1.3232,2.3438,1.3232,4.043zm-8.1543,0c0,1.3672,0.27343,2.4089,0.82031,3.125,0.54687,0.71615,1.3509,1.0742,2.4121,1.0742,1.0612,0.000002,1.8668-0.35644,2.417-1.0693,0.55012-0.71289,0.82519-1.7562,0.8252-3.1299-0.00001-1.3607-0.27508-2.3942-0.8252-3.1006-0.55014-0.70637-1.3623-1.0596-2.4365-1.0596-1.0612,0.00001-1.862,0.34832-2.4023,1.0449-0.54037,0.69662-0.81055,1.735-0.81055,3.1152z" fill="#000"/>
	<path d="m451.78,78.76c0.28645,0.000001,0.56314-0.02116,0.83008-0.06348,0.26692-0.04232,0.4785-0.08626,0.63476-0.13184v1.2402c-0.17579,0.08464-0.43458,0.15462-0.77637,0.20996-0.3418,0.05534-0.64942,0.08301-0.92285,0.08301-2.0703,0-3.1055-1.0905-3.1055-3.2715v-6.3672h-1.5332v-0.78125l1.5332-0.67383,0.6836-2.2852h0.9375v2.4805h3.1055v1.2598h-3.1055v6.2988c-0.00001,0.64453,0.15299,1.1393,0.45898,1.4844,0.30599,0.34505,0.72591,0.51758,1.2598,0.51758z" fill="#000"/>
	<path d="m462.3,76.982c-0.00001,0.9961-0.37111,1.7643-1.1133,2.3047-0.74219,0.54036-1.7839,0.81055-3.125,0.81055-1.4193,0-2.526-0.22461-3.3203-0.67383v-1.5039c0.51432,0.26042,1.0661,0.4655,1.6553,0.61523,0.58918,0.14974,1.1572,0.22461,1.7041,0.22461,0.84635,0.000001,1.4974-0.13509,1.9531-0.40527,0.45572-0.27018,0.68359-0.68196,0.6836-1.2354-0.00001-0.41666-0.18068-0.77311-0.542-1.0693-0.36133-0.29622-1.0661-0.64616-2.1142-1.0498-0.9961-0.37109-1.7041-0.69498-2.124-0.97168-0.41992-0.27669-0.73242-0.59081-0.9375-0.94238-0.20508-0.35156-0.30762-0.77148-0.30761-1.2598-0.00001-0.87239,0.35481-1.5609,1.0644-2.0654,0.70963-0.50455,1.6829-0.75682,2.9199-0.75684,1.1523,0.000011,2.2786,0.23439,3.3789,0.70312l-0.57618,1.3184c-1.0742-0.4427-2.0475-0.66405-2.9199-0.66406-0.76823,0.00001-1.3477,0.12045-1.7383,0.36133-0.39063,0.2409-0.58594,0.57293-0.58594,0.99609,0,0.28647,0.0732,0.53061,0.21973,0.73242,0.14648,0.20183,0.38248,0.39389,0.70801,0.57617,0.32552,0.1823,0.95051,0.44597,1.875,0.79102,1.2695,0.46225,2.1273,0.92774,2.5732,1.3965,0.44596,0.46875,0.66894,1.0579,0.66895,1.7676z" fill="#000"/>
	<path d="m468.38,78.76c0.28645,0.000001,0.56315-0.02116,0.83008-0.06348,0.26692-0.04232,0.47851-0.08626,0.63476-0.13184v1.2402c-0.17578,0.08464-0.43457,0.15462-0.77636,0.20996-0.34181,0.05534-0.64942,0.08301-0.92285,0.08301-2.0703,0-3.1055-1.0905-3.1055-3.2715v-6.3672h-1.5332v-0.78125l1.5332-0.67383,0.68359-2.2852h0.9375v2.4805h3.1055v1.2598h-3.1055v6.2988c0,0.64453,0.15299,1.1393,0.45898,1.4844,0.30599,0.34505,0.72591,0.51758,1.2598,0.51758z" fill="#000"/>
	<path d="m476.88,69.004c0.47526,0.000011,0.90169,0.03907,1.2793,0.11719l-0.23,1.504c-0.44271-0.09765-0.83334-0.14648-1.1719-0.14648-0.86589,0.000009-1.6064,0.35157-2.2217,1.0547-0.61524,0.70313-0.92286,1.5788-0.92285,2.627v5.7422h-1.6211v-10.703h1.3379l0.18555,1.9824h0.0781c0.39714-0.69661,0.87565-1.2337,1.4356-1.6113,0.55989-0.37759,1.1751-0.5664,1.8457-0.56641z" fill="#000"/>
	<path d="m486.74,79.902-0.32227-1.5234-0.0781,0c-0.53386,0.67057-1.0661,1.1247-1.5967,1.3623-0.5306,0.23763-1.193,0.35644-1.9873,0.35644-1.0612,0-1.8929-0.27344-2.4951-0.82031-0.60221-0.54687-0.90332-1.3249-0.90332-2.334,0-2.1615,1.7285-3.2943,5.1856-3.3984l1.8164-0.05859v-0.66406c-0.00001-0.83984-0.18068-1.46-0.542-1.8604-0.36133-0.40038-0.93913-0.60058-1.7334-0.60059-0.89194,0.00001-1.901,0.27345-3.0274,0.82031l-0.49805-1.2402c0.52735-0.28645,1.1051-0.51106,1.7334-0.67383,0.62825-0.16275,1.2581-0.24413,1.8896-0.24414,1.276,0.000011,2.2217,0.28321,2.8369,0.84961,0.61522,0.56642,0.92284,1.4746,0.92285,2.7246v7.3047zm-3.6621-1.1426c1.0091,0.000001,1.8018-0.27669,2.3779-0.83008,0.57616-0.55338,0.86425-1.3281,0.86425-2.3242v-0.9668l-1.6211,0.06836c-1.2891,0.04558-2.2184,0.24577-2.7881,0.60059-0.56966,0.35482-0.85449,0.90658-0.85449,1.6553,0,0.58594,0.17741,1.0319,0.53223,1.3379,0.35481,0.30599,0.85123,0.45899,1.4893,0.45898z" fill="#000"/>
	<path d="m496.27,80.098c-0.69663,0-1.333-0.12858-1.9092-0.38574-0.57618-0.25716-1.0596-0.65267-1.4502-1.1865h-0.11719c0.0781,0.625,0.11719,1.2174,0.11719,1.7773v4.4043h-1.6211v-15.508h1.3184l0.22461,1.4648h0.0781c0.41666-0.58593,0.90169-1.0091,1.4551-1.2695,0.55338-0.26041,1.1881-0.39061,1.9043-0.39062,1.4193,0.000011,2.5146,0.48504,3.2861,1.4551,0.77147,0.97006,1.1572,2.3307,1.1572,4.082-0.00001,1.7578-0.39226,3.1234-1.1768,4.0967-0.78452,0.97331-1.8734,1.46-3.2666,1.46zm-0.23438-9.7168c-1.0938,0.00001-1.8848,0.30274-2.373,0.9082-0.48828,0.60548-0.73893,1.569-0.75195,2.8906v0.36133c0,1.5039,0.25065,2.5798,0.75195,3.2275,0.5013,0.64779,1.3053,0.97168,2.4121,0.97168,0.92447,0.000002,1.6488-0.37435,2.1728-1.123,0.52408-0.74869,0.78613-1.7806,0.78614-3.0957-0.00001-1.3346-0.26206-2.3584-0.78614-3.0713-0.52409-0.71288-1.2614-1.0693-2.2119-1.0693z" fill="#000"/>
	<path d="m389.78,134.71c-0.61848,0-1.1198-0.0814-1.5039-0.24414v-1.3184c0.44922,0.13021,0.89193,0.19531,1.3281,0.19531,0.50781,0,0.88054-0.13835,1.1182-0.41504,0.23763-0.27669,0.35644-0.69824,0.35644-1.2646v-12.461h1.6211v12.344c-0.00001,2.1094-0.97331,3.1641-2.9199,3.1641zm1.1621-18.408c0-0.37108,0.0912-0.64289,0.27344-0.81543,0.18229-0.17251,0.41016-0.25878,0.6836-0.25879,0.26041,0.00001,0.48502,0.0879,0.67382,0.26367,0.1888,0.1758,0.2832,0.44598,0.28321,0.81055-0.00001,0.36459-0.0944,0.6364-0.28321,0.81543-0.1888,0.17905-0.41341,0.26857-0.67382,0.26855-0.27344,0.00002-0.50131-0.0895-0.6836-0.26855-0.18229-0.17903-0.27344-0.45084-0.27344-0.81543z" fill="#000"/>
	<path d="m408.79,122.74c-0.00002,1.8294-0.36786,3.3496-1.1035,4.5606-0.73569,1.2109-1.7741,2.0312-3.1152,2.4609l3.3984,3.5352h-2.4121l-2.7832-3.2227-0.53711,0.0195c-2.1029,0-3.7256-0.64291-4.8682-1.9287s-1.7139-3.1006-1.7139-5.4443c0-2.3242,0.57292-4.126,1.7188-5.4053,1.1458-1.2793,2.7734-1.9189,4.8828-1.919,2.0508,0.00002,3.6523,0.65106,4.8047,1.9531,1.1523,1.3021,1.7285,3.099,1.7285,5.3906zm-11.377,0c0,1.9336,0.41178,3.4001,1.2354,4.3994,0.82357,0.99936,2.0199,1.499,3.5889,1.499,1.582,0,2.7767-0.49805,3.584-1.4941,0.80728-0.99609,1.2109-2.4642,1.2109-4.4043-0.00001-1.9206-0.40203-3.3773-1.206-4.3701-0.80405-0.99282-1.9938-1.4892-3.5693-1.4892-1.582,0.00001-2.7848,0.49968-3.6084,1.499-0.82357,0.99936-1.2354,2.4528-1.2354,4.3604z" fill="#000"/>
	<path d="m413.27,119.2,0,6.9434c0,0.8724,0.19857,1.5234,0.59571,1.9531,0.39713,0.42969,1.0189,0.64454,1.8652,0.64453,1.1198,0.00001,1.9385-0.30598,2.456-0.91796,0.51757-0.61198,0.77636-1.6113,0.77637-2.998v-5.625h1.6211v10.703h-1.3379l-0.23438-1.4355h-0.0879c-0.33204,0.52734-0.79265,0.93099-1.3818,1.2109-0.5892,0.27995-1.2614,0.41993-2.0166,0.41993-1.3021,0-2.277-0.30925-2.9248-0.92774-0.64779-0.61849-0.97168-1.6081-0.97168-2.9688v-7.002z" fill="#000"/>
	<path d="m428.53,130.1c-1.582,0-2.8304-0.48177-3.7451-1.4453-0.91472-0.96354-1.3721-2.3014-1.3721-4.0137,0-1.7252,0.4248-3.0957,1.2744-4.1113,0.84961-1.0156,1.9906-1.5234,3.4228-1.5234,1.3411,0.00001,2.4023,0.44109,3.1836,1.3232,0.78124,0.88217,1.1719,2.0459,1.1719,3.4912v1.0254h-7.373c0.0326,1.2565,0.34994,2.2103,0.95215,2.8613,0.60221,0.65104,1.4502,0.97656,2.544,0.97656,1.1523,0,2.2917-0.24088,3.418-0.72266v1.4453c-0.57293,0.24739-1.1149,0.4248-1.626,0.53222-0.51107,0.10743-1.1279,0.16114-1.8506,0.16114zm-0.43945-9.7363c-0.85938,0.00001-1.5446,0.27996-2.0557,0.83984-0.51107,0.55991-0.81218,1.3346-0.90332,2.3242h5.5957c-0.00001-1.0221-0.22787-1.805-0.68359-2.3486-0.45574-0.54361-1.1068-0.81542-1.9531-0.81543z" fill="#000"/>
	<path d="m440.1,119c0.47525,0.00001,0.90169,0.0391,1.2793,0.11718l-0.22461,1.5039c-0.44272-0.0977-0.83334-0.14647-1.1719-0.14648-0.86589,0.00001-1.6064,0.35157-2.2217,1.0547-0.61524,0.70314-0.92285,1.5788-0.92285,2.627v5.7422h-1.6211v-10.703h1.3379l0.18555,1.9824h0.0781c0.39713-0.6966,0.87565-1.2337,1.4356-1.6113,0.55989-0.37759,1.1751-0.56639,1.8457-0.5664z" fill="#000"/>
	<path d="m441.68,119.2,1.7383,0,2.3438,6.1035c0.51432,1.3932,0.83333,2.3991,0.95703,3.0176h0.0781c0.0846-0.33203,0.26204-0.90006,0.53223-1.7041,0.27017-0.80403,1.154-3.2764,2.6514-7.417h1.7383l-4.5996,12.188c-0.45573,1.2044-0.98796,2.0589-1.5967,2.5635-0.60872,0.50455-1.3558,0.75683-2.2412,0.75683-0.49479,0-0.98307-0.0553-1.4648-0.16601v-1.2988c0.35807,0.0781,0.75846,0.11718,1.2012,0.11718,1.1133,0,1.9076-0.625,2.3828-1.875l0.59571-1.5234z" fill="#000"/>
	<rect ry="10" height="40" width="200" y="220" x="320" fill="#2e3436"/>
	<path d="m107.26,249.9-7.959,0,0-14.277,7.959,0,0,1.4746-6.2988,0,0,4.5996,5.918,0,0,1.4648-5.918,0,0,5.2539,6.2988,0z" fill="#000"/>
	<path d="m117.51,249.9,0-6.9238c-0.00001-0.87239-0.19857-1.5234-0.5957-1.9531-0.39714-0.42968-1.0189-0.64452-1.8652-0.64453-1.1198,0.00001-1.9401,0.30274-2.4609,0.9082-0.52084,0.60548-0.78125,1.6048-0.78125,2.998v5.6152h-1.6211v-10.703h1.3184l0.26368,1.4648h0.0781c0.33203-0.52733,0.79752-0.93586,1.3965-1.2256,0.59895-0.28971,1.2663-0.43456,2.002-0.43457,1.289,0.00001,2.2591,0.31088,2.9102,0.93261,0.65103,0.62176,0.97655,1.6162,0.97656,2.9834v6.9824z" fill="#000"/>
	<path d="m125.91,248.76c0.28645,0,0.56315-0.0212,0.83008-0.0635,0.26692-0.0423,0.47851-0.0863,0.63477-0.13184v1.2402c-0.17579,0.0846-0.43458,0.15462-0.77637,0.20996-0.3418,0.0553-0.64942,0.083-0.92285,0.083-2.0703,0-3.1055-1.0905-3.1055-3.2715v-6.3672h-1.5332v-0.78125l1.5332-0.67382,0.68359-2.2852h0.9375v2.4805h3.1055v1.2598h-3.1055v6.2988c0,0.64454,0.15299,1.1393,0.45899,1.4844,0.30598,0.34505,0.7259,0.51758,1.2598,0.51758z" fill="#000"/>
	<path d="m131.14,249.9-1.6211,0,0-10.703,1.6211,0zm-1.7578-13.604c0-0.37108,0.0911-0.64289,0.27344-0.81543,0.18229-0.17251,0.41016-0.25878,0.6836-0.25879,0.26041,0.00001,0.48502,0.0879,0.67382,0.26367,0.1888,0.1758,0.2832,0.44598,0.28321,0.81055-0.00001,0.36459-0.0944,0.6364-0.28321,0.81543-0.1888,0.17905-0.41341,0.26857-0.67382,0.26855-0.27344,0.00002-0.50131-0.0895-0.6836-0.26855-0.18229-0.17903-0.27344-0.45084-0.27344-0.81543z" fill="#000"/>
	<path d="m138.06,248.76c0.28645,0,0.56314-0.0212,0.83008-0.0635,0.26692-0.0423,0.47851-0.0863,0.63476-0.13184v1.2402c-0.17579,0.0846-0.43457,0.15462-0.77636,0.20996-0.34181,0.0553-0.64942,0.083-0.92286,0.083-2.0703,0-3.1055-1.0905-3.1055-3.2715v-6.3672h-1.5332v-0.78125l1.5332-0.67382,0.68359-2.2852h0.9375v2.4805h3.1055v1.2598h-3.1055v6.2988c0,0.64454,0.15299,1.1393,0.45898,1.4844,0.30599,0.34505,0.72591,0.51758,1.2598,0.51758z" fill="#000"/>
	<path d="m139.97,239.2,1.7383,0,2.3438,6.1035c0.51432,1.3932,0.83333,2.3991,0.95703,3.0176h0.0781c0.0846-0.33203,0.26204-0.90006,0.53223-1.7041,0.27017-0.80403,1.154-3.2764,2.6514-7.417h1.7383l-4.5996,12.188c-0.45573,1.2044-0.98796,2.0589-1.5967,2.5635-0.60872,0.50455-1.3558,0.75683-2.2412,0.75683-0.49479,0-0.98307-0.0553-1.4648-0.16601v-1.2988c0.35807,0.0781,0.75846,0.11718,1.2012,0.11718,1.1133,0,1.9076-0.625,2.3828-1.875l0.59571-1.5234z" fill="#000"/>
	<path d="m158.85,249.9-1.6602,0,0-14.277,7.959,0,0,1.4746-6.2988,0,0,5.2246,5.918,0,0,1.4746-5.918,0z" fill="#000"/>
	<path d="m172.14,239c0.47525,0.00001,0.90169,0.0391,1.2793,0.11718l-0.22461,1.5039c-0.44272-0.0976-0.83334-0.14647-1.1719-0.14648-0.86589,0.00001-1.6064,0.35157-2.2217,1.0547-0.61524,0.70314-0.92285,1.5788-0.92285,2.627v5.7422h-1.6211v-10.703h1.3379l0.18555,1.9824h0.0781c0.39713-0.6966,0.87565-1.2337,1.4356-1.6113,0.55989-0.37759,1.1751-0.56639,1.8457-0.5664z" fill="#000"/>
	<path d="m182,249.9-0.32226-1.5234-0.0781,0c-0.53386,0.67057-1.0661,1.1247-1.5967,1.3623-0.5306,0.23763-1.193,0.35645-1.9873,0.35645-1.0612,0-1.8929-0.27344-2.4951-0.82032-0.60222-0.54687-0.90332-1.3249-0.90332-2.334,0-2.1614,1.7285-3.2943,5.1856-3.3984l1.8164-0.0586v-0.66406c-0.00001-0.83984-0.18067-1.46-0.54199-1.8604-0.36134-0.40038-0.93913-0.60057-1.7334-0.60058-0.89193,0.00001-1.901,0.27344-3.0273,0.82031l-0.49805-1.2402c0.52734-0.28645,1.1051-0.51106,1.7334-0.67383,0.62825-0.16275,1.2581-0.24413,1.8896-0.24414,1.276,0.00001,2.2217,0.28321,2.8369,0.84961,0.61523,0.56641,0.92284,1.4746,0.92285,2.7246v7.3047zm-3.6621-1.1426c1.0091,0,1.8018-0.2767,2.3779-0.83008,0.57617-0.55339,0.86425-1.3281,0.86426-2.3242v-0.9668l-1.6211,0.0684c-1.2891,0.0456-2.2184,0.24577-2.7881,0.60059-0.56966,0.35482-0.8545,0.90658-0.85449,1.6553-0.00001,0.58594,0.1774,1.0319,0.53222,1.3379,0.35482,0.30599,0.85124,0.45899,1.4893,0.45899z" fill="#000"/>
	<path d="m200.2,249.9,0-6.9629c-0.00001-0.85285-0.18231-1.4925-0.54687-1.9189-0.3646-0.42643-0.93101-0.63964-1.6992-0.63965-1.0091,0.00001-1.7546,0.28972-2.2363,0.86914-0.48178,0.57944-0.72267,1.4714-0.72266,2.6758v5.9766h-1.6211v-6.9629c-0.00001-0.85285-0.1823-1.4925-0.54688-1.9189-0.36459-0.42643-0.93425-0.63964-1.709-0.63965-1.0156,0.00001-1.7594,0.30437-2.2314,0.91309-0.472,0.60873-0.70801,1.6064-0.708,2.9932v5.6152h-1.6211v-10.703h1.3184l0.26367,1.4648h0.0781c0.30598-0.52082,0.7373-0.92772,1.2939-1.2207,0.55664-0.29296,1.18-0.43944,1.8701-0.43945,1.6732,0.00001,2.7669,0.60548,3.2812,1.8164h0.0781c0.319-0.55988,0.78124-1.0026,1.3867-1.3281,0.60545-0.32551,1.2956-0.48827,2.0703-0.48828,1.2109,0.00001,2.1175,0.31088,2.7197,0.93261,0.6022,0.62176,0.90331,1.6162,0.90332,2.9834v6.9824z" fill="#000"/>
	<path d="m209.67,250.1c-1.582,0-2.8304-0.48177-3.7451-1.4453-0.91472-0.96354-1.3721-2.3014-1.3721-4.0137,0-1.7252,0.4248-3.0957,1.2744-4.1113,0.84961-1.0156,1.9906-1.5234,3.4229-1.5234,1.3411,0.00001,2.4023,0.44109,3.1836,1.3232,0.78124,0.88217,1.1719,2.0459,1.1719,3.4912v1.0254h-7.373c0.0325,1.2565,0.34993,2.2103,0.95215,2.8613,0.6022,0.65104,1.4502,0.97656,2.5439,0.97656,1.1523,0,2.2917-0.24088,3.418-0.72266v1.4453c-0.57293,0.24739-1.1149,0.4248-1.626,0.53222-0.51107,0.10743-1.1279,0.16114-1.8506,0.16114zm-0.43946-9.7363c-0.85938,0.00001-1.5446,0.27996-2.0557,0.83984-0.51107,0.55991-0.81218,1.3346-0.90332,2.3242h5.5957c-0.00001-1.0221-0.22787-1.805-0.68359-2.3486-0.45574-0.54361-1.1068-0.81542-1.9531-0.81543z" fill="#000"/>
	<path d="m225.1,249.9-1.9629-6.2793c-0.1237-0.38411-0.35482-1.2565-0.69336-2.6172h-0.0781c-0.26042,1.1393-0.48829,2.0182-0.68359,2.6367l-2.0215,6.2598h-1.875l-2.9199-10.703h1.6992c0.6901,2.6888,1.2158,4.7363,1.5772,6.1426,0.36132,1.4062,0.56803,2.3535,0.62011,2.8418h0.0781c0.0716-0.37109,0.18717-0.85123,0.34668-1.4404,0.1595-0.58918,0.29785-1.0563,0.41504-1.4014l1.9629-6.1426h1.7578l1.9141,6.1426c0.36458,1.1198,0.61197,2.0606,0.74219,2.8223h0.0781c0.026-0.23437,0.096-0.5957,0.20996-1.084,0.11392-0.48828,0.79263-3.1152,2.0361-7.8809h1.6797l-2.959,10.703z" fill="#000"/>
	<path d="m241.14,244.54c-0.00001,1.7448-0.43947,3.1071-1.3184,4.0869-0.87892,0.97982-2.0931,1.4697-3.6426,1.4697-0.95704,0-1.8066-0.22461-2.5488-0.67383-0.74219-0.44922-1.3151-1.0938-1.7188-1.9336-0.40365-0.83984-0.60547-1.8229-0.60547-2.9492,0-1.7448,0.4362-3.1038,1.3086-4.0772,0.87239-0.9733,2.0833-1.46,3.6328-1.46,1.4974,0.00001,2.6872,0.49805,3.5693,1.4941,0.88216,0.9961,1.3232,2.3438,1.3232,4.043zm-8.1543,0c0,1.3672,0.27343,2.4088,0.82031,3.125,0.54687,0.71614,1.3509,1.0742,2.4121,1.0742,1.0612,0.00001,1.8669-0.35644,2.417-1.0693,0.55012-0.71289,0.82519-1.7562,0.8252-3.1299-0.00001-1.3607-0.27508-2.3942-0.8252-3.1006-0.55013-0.70637-1.3623-1.0596-2.4365-1.0596-1.0612,0.00001-1.862,0.34832-2.4023,1.0449-0.54037,0.69662-0.81055,1.735-0.81055,3.1152z" fill="#000"/>
	<path d="m248.86,239c0.47525,0.00001,0.90169,0.0391,1.2793,0.11718l-0.22461,1.5039c-0.44272-0.0976-0.83334-0.14647-1.1719-0.14648-0.86589,0.00001-1.6064,0.35157-2.2217,1.0547-0.61524,0.70314-0.92285,1.5788-0.92285,2.627v5.7422h-1.6211v-10.703h1.3379l0.18555,1.9824h0.0781c0.39713-0.6966,0.87565-1.2337,1.4356-1.6113,0.55989-0.37759,1.1751-0.56639,1.8457-0.5664z" fill="#000"/>
	<path d="m253.74,244.42c0.27995-0.39713,0.70638-0.91796,1.2793-1.5625l3.457-3.6621h1.9238l-4.3359,4.5606,4.6387,6.1426h-1.9629l-3.7793-5.0586-1.2207,1.0547v4.0039h-1.6016v-15.195h1.6016v8.0566c0,0.35808-0.026,0.91147-0.0781,1.6602z" fill="#000"/>
	<path d="m400.88,249.9-4.8438-12.656-0.0781,0c0.0911,1.0026,0.13672,2.194,0.13672,3.5742v9.082h-1.5332v-14.277h2.5l4.5215,11.777h0.0781l4.5605-11.777h2.4805v14.277h-1.6602v-9.1992c-0.00002-1.0547,0.0456-2.2005,0.13672-3.4375h-0.0781l-4.8828,12.637z" fill="#FFF"/>
	<path d="m420.76,235.62,1.7871,0-5.1465,14.277-1.6406,0-5.1172-14.277,1.7578,0,3.2812,9.2383c0.3776,1.0612,0.67708,2.0931,0.89844,3.0957,0.23437-1.0547,0.54036-2.1061,0.91797-3.1543z" fill="#FFF"/>
	<path d="m430.63,236.9c-1.569,0.00001-2.8076,0.52247-3.7158,1.5674-0.90821,1.0449-1.3623,2.4756-1.3623,4.292,0,1.8685,0.43782,3.3122,1.3135,4.3311,0.87564,1.0189,2.124,1.5283,3.7451,1.5283,0.99608,0,2.1322-0.17904,3.4082-0.53711v1.4551c-0.9896,0.37109-2.2103,0.55664-3.6621,0.55664-2.1029,0-3.7256-0.63802-4.8682-1.9141-1.1426-1.276-1.7139-3.0892-1.7139-5.4394,0-1.4713,0.27506-2.7604,0.82519-3.8672s1.3444-1.9596,2.3828-2.5586c1.0384-0.59894,2.2607-0.89842,3.667-0.89844,1.4974,0.00002,2.806,0.27345,3.9258,0.82031l-0.70313,1.4258c-1.0807-0.5078-2.1615-0.76171-3.2422-0.76172z" fill="#FFF"/>
	<path d="m445,238.98c-0.00001,0.91147-0.25554,1.6569-0.7666,2.2363-0.51108,0.57944-1.2354,0.96681-2.1728,1.1621v0.0781c1.1458,0.14323,1.9954,0.50782,2.5488,1.0938,0.55337,0.58594,0.83006,1.3542,0.83007,2.3047-0.00001,1.3607-0.47201,2.4072-1.416,3.1396-0.94402,0.73243-2.2852,1.0986-4.0234,1.0986-0.75521,0-1.4469-0.057-2.0752-0.1709-0.62826-0.11393-1.2386-0.31413-1.8311-0.60059v-1.543c0.61849,0.30599,1.2777,0.53874,1.9775,0.69825,0.69987,0.1595,1.3623,0.23925,1.9873,0.23925,2.4674,0,3.7012-0.96679,3.7012-2.9004-0.00001-1.7318-1.3607-2.5976-4.082-2.5976h-1.4062v-1.3965h1.4258c1.1133,0.00001,1.9954-0.24576,2.6465-0.7373,0.65103-0.49153,0.97656-1.1735,0.97656-2.0459,0-0.6966-0.23926-1.2435-0.71777-1.6406-0.47852-0.39712-1.1279-0.59569-1.9482-0.5957-0.62501,0.00001-1.2142,0.0847-1.7676,0.25391-0.55339,0.16928-1.1849,0.48178-1.8945,0.9375l-0.82031-1.0938c0.58593-0.46223,1.2614-0.82518,2.0264-1.0889,0.76497-0.26366,1.5706-0.39549,2.417-0.39551,1.3867,0.00002,2.4642,0.3174,3.2324,0.95215,0.76822,0.63478,1.1523,1.5056,1.1523,2.6123z" fill="#FFF"/>
	<path fill="#73d216" d="m140,319.9,40,30,40-30-20,0,0-40-20,0-20,0,0,40-20,0z"/>
</svg>
